data exploration
…
Figure 1.1: Reefs commonly used by octopus fishers

# A tibble: 25 x 1
   fishing.ground
   <chr>         
 1 Pwela         
 2 Chocha        
 3 Mziwaji       
 4 Koroba        
 5 Bawara        
 6 Banda Ya Nje  
 7 Fisi          
 8 Machange      
 9 Pupu          
10 Imbi          
# ... with 15 more rows
…
